Grupo-Capstone-14 - Projeto CAPSTONE GRUPO 14
…
4.2 Contagem de inquéritos respondidos por agrupamento pré e pós-intervenção

summary_inquerito_by_agrupamento <- inquerito_AVC_2024 %>% 
  summarise(
    count = n(),
.by = c(altura_questionario, agrupamento_escolas)
  ) %>%
  arrange(altura_questionario)

summary_inquerito_by_agrupamento

# A tibble: 21 × 3
   altura_questionario agrupamento_escolas count
   <fct>               <chr>               <int>
 1 Pré-Intervenção     A1                    177
 2 Pré-Intervenção     A2                     92
 3 Pré-Intervenção     E1                    135
 4 Pré-Intervenção     E2                    131
 5 Pré-Intervenção     D2                    190
 6 Pré-Intervenção     D1                    100
 7 Pré-Intervenção     E3                     84
 8 Pré-Intervenção     C2                     61
 9 Pré-Intervenção     C1                     84
10 Pré-Intervenção     B2                     93
# ℹ 11 more rows
…
